^C:\USERS\АЛЕКСАНДР\SOURCE\REPOS\CPP4\DEBUG\CPP4.OBJ
C:\USERS\Александр\SOURCE\REPOS\CPP4\DEBUG\CPP4.EXE
C:\USERS\Александр\SOURCE\REPOS\CPP4\DEBUG\CPP4.ILK
C:\USERS\АЛЕКСАНДР\SOURCE\REPOS\CPP4\DEBUG\CPP4.PDB
